#include<stdio.h>
int main()
{
	int a,b;
	printf("Enter your Number 1 :");
	scanf("%d",&a);
	printf("Enter your Number 2 :");
	scanf("%d",&b);
	a=a+b;
	b=a-b;
	a=a-b;
	printf("Number 1 is now :%d\n",a);
	printf("Number 2 is now :%d",b);
	return 0;
}